example/blinky.vcd
$timescale 1 us $end
$var reg 1 ! blink $end
$var wire 1 " clk $end
$var reg 3 # counter $end
$var wire 1 $ rst $end
$enddefinitions $end
#0
0!
0"
b000 #
0$
#0
1!
1"
b001 #
#1
0"
#2
1"
b010 #
#3
0"
#4
1"
b011 #
#5
0"
#6
1"
b100 #
#7
0"
#8
1"
b101 #
#9
0"
#10
1"
b110 #
#11
0"
#12
1"
b111 #
#13
0"
#14
1"
b000 #
#15
0"
#16
0!
1"
b001 #
#17
0"
#18
1"
b010 #
